…
In this example we start with a preloaded phylogeny of Solanum sect Lycopersicon from Pease et al (2016). The tree is already of class `phylo` (from the 'ape' package).

``` r
data("tomato")
class(tomato)
#> [1] "phylo"
```

The two functions you'll need from `pepo` are: `prep_branch_lengths()` and `tree_hrf()`. The former returns a tibble (a tidy data frame) with variables that will be needed by the latter.

``` r
tomato_branches <- prep_branch_lengths(tomato) 
tomato_branches
#> # A tibble: 36 x 7
#>    code   from    to this_branch descendants ancestor sibling
#>    <chr> <int> <int>       <dbl> <list>         <dbl>   <dbl>
#>  1 20-21    20    21       1.40  <dbl [2]>     NA       4.59 
#>  2 21-22    21    22       1.38  <dbl [2]>      1.40    0.596
#>  3 22-23    22    23       1.56  <dbl [2]>      1.38    0.376
#>  4 23-24    23    24       4.42  <dbl [2]>      1.56    2.76 
#>  5 24-25    24    25       0.525 <dbl [2]>      4.42    0.355
#>  6 25-26    25    26       0.616 <dbl [2]>      0.525   1.63 
#>  7 26-27    26    27       1.07  <dbl [2]>      0.616   1.00 
#>  8 27-1     27     1       0.612 <dbl [0]>      1.07    1.00 
#>  9 27-2     27     2       1.00  <dbl [0]>      1.07    0.612
#> 10 26-3     26     3       1.00  <dbl [0]>      0.616   1.07 
#> # ... with 26 more rows
```

Then we can call `tree_hrf()` on that tibble. The function will return the original data frame plus a new variable, `hrf`. This function assumes branch lengths are **in coalescent units** (e.g., calculated in MP-EST). The call below will assume the default population-wide mutation rate (0.01).

``` r
tomato_hrf <- tree_hrf(tomato_branches)
tomato_hrf
#> # A tibble: 36 x 8
#>    code   from    to this_branch descendants ancestor sibling      hrf
#>    <chr> <int> <int>       <dbl> <list>         <dbl>   <dbl>    <dbl>
#>  1 20-21    20    21       1.40  <dbl [2]>     NA       4.59  NaN     
#>  2 21-22    21    22       1.38  <dbl [2]>      1.40    0.596   0.473 
#>  3 22-23    22    23       1.56  <dbl [2]>      1.38    0.376   0.241 
#>  4 23-24    23    24       4.42  <dbl [2]>      1.56    2.76    0.0341
#>  5 24-25    24    25       0.525 <dbl [2]>      4.42    0.355   0.685 
#>  6 25-26    25    26       0.616 <dbl [2]>      0.525   1.63    0.624 
#>  7 26-27    26    27       1.07  <dbl [2]>      0.616   1.00    0.561 
#>  8 27-1     27     1       0.612 <dbl [0]>      1.07    1.00   NA     
#>  9 27-2     27     2       1.00  <dbl [0]>      1.07    0.612  NA     
#> 10 26-3     26     3       1.00  <dbl [0]>      0.616   1.07   NA     
#> # ... with 26 more rows
```
…
